Collaborative Filtering com Alunos Graduados
…
alunos_max_media <- dados_aluno_cc %>% 
  group_by(Matricula, Media_Disciplina) %>% 
  filter(Media_Disciplina == max(Media_Disciplina)) %>% 
  ungroup() 
alunos_max_media

## # A tibble: 21,576 x 10
##    Matricula Cod_Disciplina                        Nome_Disciplina Periodo
##       <fctr>          <int>                                 <fctr>   <dbl>
##  1    B10079        1411167                          PROGRAMAÇÃO I  2007.2
##  2    B10079        1109113                    MATEMÁTICA DISCRETA  2008.1
##  3    B10079        1411181          LABORATÓRIO DE PROGRAMAÇÃO II  2008.1
##  4    B10079        1307151           LEITURA E PRODUCAO DE TEXTOS  2007.1
##  5    B10079        1109113                    MATEMÁTICA DISCRETA  2008.2
##  6    B10079        1411167                          PROGRAMAÇÃO I  2007.1
##  7    B10079        1305218                 METODOLOGIA CIENTÍFICA  2007.2
##  8    B10079        1108089         FUNDAMENTOS DE FÍSICA CLÁSSICA  2008.1
##  9    B10079        1109035 ÁLGEBRA VETORIAL E GEOMETRIA ANALÍTICA  2007.1
## 10    B10079        1109053      CALCULO DIFERENCIAL E INTEGRAL II  2008.2
## # ... with 21,566 more rows, and 6 more variables: Creditos <int>,
## #   Media_Disciplina <dbl>, Situacao <fctr>, Periodo_Ingresso <dbl>,
## #   Periodo_Relativo <int>, Media <dbl>
…
